{
	"centerX" : 0.5,
	"centerY" : 0.5,
	"angle" : 0,
	"scale" : 1,
	"width" : 188,
	"height" : 66,
	"contents" : [{
			"type" : "image",
			"resource" : {
				"type" : "static",
				"path" : "res/one_day.png"
			},
			"centerX" : 0.5,
			"centerY" : 0.5,
			"width" : 188,
			"height" : 66,
			"angle" : 0,
			"zorder" : 1
		},
		{
            "type": "text",
            "centerX": 0.7,
            "centerY": 0.25,
            "width": 90,
            "height": 20,
            "angle": 0,
            "color": "#ffffffff",
            "isVertical": 0,
			"alignment": 1,
			"editable":true,
            "text": "{LOCATION}",
            "zorder": 2
        }
	]
}
