{
	"centerX" : 0.5,
	"centerY" : 0.5,
	"angle" : 0,
	"scale" : 1,
	"width" : 170,
	"height" : 57,
	"contents" : [
		{
            "type": "text",
            "centerX": 0.5,
            "centerY": 0.5,
            "width": 160,
            "height": 18,
            "angle": 0,
            "color": "#ffffffff",
            "isVertical": 0,
			"alignment": 0,
            "text": "{yyyy/MM/dd HH:mm}",
            "zorder": 2
        }
	]
}
