{
    "resId": "tts_ai_french_resid_group",
    "domain": "TTS",
    "district": "oversea",
    "deviceType": "common",
    "productName": "common",
    "romVersion": "common",
    "osVersion": "EmotionUI_11.0.0",
    "version": "0x01010005",
    "digest": "f054d651f49f9a4143839f0ae2450fbfd68f2489cc6beeb07f55b5cda260b313",
    "releaseNotes": "this is a tts french resource",
	"ResMetaData": [
        {
            "origin_id": "0x0000000008001001",
            "res_value": "",
            "res_path": "tts/tts_french_resid_group/french/taco_weights/french/french.bin.zst",
            "data_version": "0x01010005",
            "encrypt_mode": "0",
            "domain": "TTS"
        },
		{
            "origin_id": "0x0000000008001002",
            "res_value": "",
            "res_path": "tts/tts_french_resid_group/french/taco_weights/french/french.txt",
            "data_version": "0x01010005",
            "encrypt_mode": "0",
            "domain": "TTS"
        },
		{
            "origin_id": "0x0000000008001003",
            "res_value": "",
            "res_path": "tts/tts_french_resid_group/french/lpcnet_weights/french/french.bin.zst",
            "data_version": "0x01010005",
            "encrypt_mode": "0",
            "domain": "TTS"
        },
		{
            "origin_id": "0x0000000008001004",
            "res_value": "",
            "res_path": "tts/tts_french_resid_group/french/lpcnet_weights/french/french.txt",
            "data_version": "0x01010005",
            "encrypt_mode": "0",
            "domain": "TTS"
        },
		{
            "origin_id": "0x0000000008001005",
            "res_value": "",
            "res_path": "tts/tts_french_resid_group/french/lpcnet_weights/french_lite/french.bin.zst",
            "data_version": "0x01010005",
            "encrypt_mode": "0",
            "domain": "TTS"
        },
		{
            "origin_id": "0x0000000008001006",
            "res_value": "",
            "res_path": "tts/tts_french_resid_group/french/lpcnet_weights/french_lite/french.txt",
            "data_version": "0x01010005",
            "encrypt_mode": "0",
            "domain": "TTS"
        }
    ]
}